[
  {
    "version": 13
  },
  {
    "id": "apiAthenaAuthPublicKey",
    "url": "https://athena.wynntils.com/auth/getPublicKey"
  },
  {
    "arguments": [
      "key",
      "username",
      "version"
    ],
    "id": "apiAthenaAuthResponse",
    "method": "post",
    "url": "https://athena.wynntils.com/auth/responseEncryption"
  },
  {
    "arguments": [
      "trace"
    ],
    "id": "apiAthenaTelemetryCrash",
    "method": "post",
    "url": "https://athena.wynntils.com/crash/report"
  },
  {
    "arguments": [
      "old_version",
      "new_version"
    ],
    "id": "apiAthenaUpdateChangelog",
    "url": "https://athena.wynntils.com/version/changelog/%{old_version}/%{new_version}"
  },
  {
    "arguments": [
      "stream"
    ],
    "id": "apiAthenaUpdateCheck",
    "url": "https://athena.wynntils.com/version/latest/%{stream}"
  },
  {
    "arguments": [
      "uuid"
    ],
    "id": "apiAthenaUserInfo",
    "method": "post",
    "url": "https://athena.wynntils.com/user/getInfo"
  },
  {
    "arguments": [
      "lang",
      "text"
    ],
    "id": "apiGoogleTranslation",
    "url": "https://translate.googleapis.com/translate_a/single?client=gtx&sl=en&tl=%{lang}&dt=t&q=%{text}"
  },
  {
    "arguments": [
      "name"
    ],
    "encoding": "wiki",
    "id": "apiWikiDiscoveryQuery",
    "url": "https://wynncraft.wiki.gg/api.php?action=parse&format=json&prop=wikitext&section=0&page=%{name}"
  },
  {
    "arguments": [
      "name"
    ],
    "encoding": "cargo",
    "id": "apiWikiQuestPageQuery",
    "url": "https://wynncraft.wiki.gg/index.php?title=Special:CargoExport&tables=Quests&&fields=Quests._pageTitle&where=Quests.name+%3D+%{name}&order+by=&limit=2000&format=json"
  },
  {
    "id": "dataAthenaGuildList",
    "url": "https://athena.wynntils.com/cache/get/guildList"
  },
  {
    "id": "dataAthenaLeaderboard",
    "url": "https://athena.wynntils.com/cache/get/leaderboard"
  },
  {
    "id": "dataAthenaServerList",
    "url": "https://athena.wynntils.com/cache/get/serverList"
  },
  {
    "id": "dataStaticAbilities",
    "md5": "fd5e9a5b76988ae00265695ee90d622a",
    "url": "https://gitea.com/wuki/Static-Storage/raw/branch/main/Reference/abilities.json"
  },
  {
    "id": "dataStaticCaveInfo",
    "md5": "143dd6cadb8967214da630ec3168c3bc",
    "url": "https://gitea.com/wuki/Static-Storage/raw/branch/main/Reference/caves.json"
  },
  {
    "id": "dataStaticCharms",
    "md5": "620463f53862afb5d558095db325fdb8",
    "url": "https://gitea.com/wuki/Static-Storage/raw/branch/main/Reference/charms.json"
  },
  {
    "id": "dataStaticCombatLocations",
    "md5": "f8d2b16d8cd33181b6a3857fa5e390a9",
    "url": "https://gitea.com/wuki/Static-Storage/raw/branch/main/Data-Storage/combat_locations.json"
  },
  {
    "id": "dataStaticCombatMapFeatures",
    "md5": "af45124a2370cf65db36dfbb33e0a499",
    "url": "https://gitea.com/wuki/Static-Storage/raw/branch/main/Reference/combat_mapfeatures.json"
  },
  {
    "id": "dataStaticDestinations",
    "md5": "8021e388b6c8ec682d3323fd7d2672f6",
    "url": "https://gitea.com/wuki/Static-Storage/raw/branch/main/Data-Storage/destinations.json"
  },
  {
    "id": "dataStaticGear",
    "md5": "6a6093bba4b332038cab902500895e32",
    "url": "https://gitea.com/wuki/Static-Storage/raw/branch/main/Reference/gear.json"
  },
  {
    "id": "dataStaticGearAdvanced",
    "md5": "7cc0f3d523b1423e11f5fcb7a508c2d9",
    "url": "https://gitea.com/wuki/Static-Storage/raw/branch/main/Reference/advanced_gear.json"
  },
  {
    "id": "dataStaticIdentificationKeys",
    "md5": "745366b87899dfa650e7a9a2b0d5f4d3",
    "url": "https://gitea.com/wuki/Static-Storage/raw/branch/main/Reference/id_keys.json"
  },
  {
    "id": "dataStaticIngredientSkins",
    "md5": "04c5e1ee6dcd78bc0939ec7b5a6d6dd0",
    "url": "https://gitea.com/wuki/Static-Storage/raw/branch/main/Data-Storage/ingredient_skins.json"
  },
  {
    "id": "dataStaticIngredients",
    "md5": "6120a9902397625f15ea7ee41b63f284",
    "url": "https://gitea.com/wuki/Static-Storage/raw/branch/main/Reference/ingredients.json"
  },
  {
    "id": "dataStaticIngredientsAdvanced",
    "md5": "f0244d7c5658d7093eb0650b0f29a657",
    "url": "https://gitea.com/wuki/Static-Storage/raw/branch/main/Reference/advanced_ingredients.json"
  },
  {
    "id": "dataStaticItemObtain",
    "md5": "20e9a265f5e2ed91b02d80623b3765bd",
    "url": "https://gitea.com/wuki/Static-Storage/raw/branch/main/Data-Storage/item_obtain.json"
  },
  {
    "id": "dataStaticItemSets",
    "md5": "071b40d5f63ec963742df664a14e072a",
    "url": "https://gitea.com/wuki/Static-Storage/raw/branch/main/Data-Storage/item_sets.json"
  },
  {
    "id": "dataStaticLootrunTasksNamed",
    "md5": "2e0080ebd9e8d06a1635bb2dedb652fe",
    "url": "https://gitea.com/wuki/Static-Storage/raw/branch/main/Data-Storage/lootrun_tasks_named.json"
  },
  {
    "id": "dataStaticLootrunTasksNamedV2",
    "md5": "c8a56fdbc7a0fd65750ed6c343e0e0fd",
    "url": "https://gitea.com/wuki/Static-Storage/raw/branch/main/Data-Storage/lootrun_tasks_named_v2.json"
  },
  {
    "id": "dataStaticMajorIds",
    "md5": "38bb5299f66016271f5bf3a1f49ec0ae",
    "url": "https://gitea.com/wuki/Static-Storage/raw/branch/main/Data-Storage/major_ids.json"
  },
  {
    "id": "dataStaticMaps",
    "md5": "868e6cbc3ac5b6e549b2b98f845e3318",
    "url": "https://gitea.com/wuki/Static-Storage/raw/branch/main/Reference/maps.json"
  },
  {
    "id": "dataStaticMaterialConversion",
    "md5": "a4ec63ebbd23003dc6627fed738f8c24",
    "url": "https://gitea.com/wuki/Static-Storage/raw/branch/main/Data-Storage/material_conversions.json"
  },
  {
    "id": "dataStaticMaterials",
    "md5": "b880b677f2335763b802425dacc990ee",
    "url": "https://gitea.com/wuki/Static-Storage/raw/branch/main/Reference/materials.json"
  },
  {
    "id": "dataStaticPlaceMapFeatures",
    "md5": "fba1ef5092add312b243e5dde3ab9004",
    "url": "https://gitea.com/wuki/Static-Storage/raw/branch/main/Reference/place_mapfeatures.json"
  },
  {
    "id": "dataStaticPlaces",
    "md5": "c1907ba6d7c8851be2c6cf3062d17de5",
    "url": "https://gitea.com/wuki/Static-Storage/raw/branch/main/Reference/places.json"
  },
  {
    "id": "dataStaticSeaskipperDestinations",
    "md5": "9316de06eb80ef9a26f8b604e9ac13bd",
    "url": "https://gitea.com/wuki/Static-Storage/raw/branch/main/Data-Storage/seaskipper_destinations.json"
  },
  {
    "id": "dataStaticServiceMapFeatures",
    "md5": "c84ea9dfea44549d579c376fc904be35",
    "url": "https://gitea.com/wuki/Static-Storage/raw/branch/main/Reference/service_mapfeatures.json"
  },
  {
    "id": "dataStaticServices",
    "md5": "183e76811f0b598649753c870e158444",
    "url": "https://gitea.com/wuki/Static-Storage/raw/branch/main/Reference/services.json"
  },
  {
    "id": "dataStaticShinyStats",
    "md5": "c1837281e4b45af5683189ebd465d1cc",
    "url": "https://gitea.com/wuki/Static-Storage/raw/branch/main/Data-Storage/shiny_stats.json"
  },
  {
    "id": "dataStaticSplashes",
    "md5": "262f3c73093a1f0979beedb8b25e9420",
    "url": "https://gitea.com/wuki/Static-Storage/raw/branch/main/Data-Storage/splashes.json"
  },
  {
    "id": "dataStaticTomes",
    "md5": "dae81e18e09cf2904459d23bec819287",
    "url": "https://gitea.com/wuki/Static-Storage/raw/branch/main/Reference/tomes.json"
  },
  {
    "id": "dataStaticTools",
    "md5": "cc54a8f472e9220838ec78e8a29f08a6",
    "url": "https://gitea.com/wuki/Static-Storage/raw/branch/main/Reference/tools.json"
  },
  {
    "id": "dataStaticUrls",
    "url": "https://gitea.com/wuki/Static-Storage/raw/branch/main/Data-Storage/urls.json"
  },
  {
    "arguments": [
      "name"
    ],
    "id": "dataWynncraftGuild",
    "url": "https://api.wynncraft.com/v3/guild/%{name}"
  },
  {
    "arguments": [
      "type"
    ],
    "id": "dataWynncraftLeaderboard",
    "url": "https://api.wynncraft.com/v3/leaderboards/%{type}?resultLimit=9"
  },
  {
    "arguments": [
      "username"
    ],
    "id": "dataWynncraftPlayer",
    "url": "https://api.wynncraft.com/v3/player/%{username}"
  },
  {
    "id": "dataWynncraftTerritoryListV3",
    "url": "https://api.wynncraft.com/v3/guild/list/territory"
  },
  {
    "arguments": [
      "title"
    ],
    "encoding": "wiki",
    "id": "linkWikiLookup",
    "url": "https://wynncraft.wiki.gg/wiki/%{title}"
  },
  {
    "arguments": [
      "itemname"
    ],
    "id": "linkWynncraftItemLookup",
    "url": "https://wynncraft.com/item/%{itemname}"
  },
  {
    "arguments": [
      "username"
    ],
    "id": "linkWynncraftPlayerStats",
    "url": "https://wynncraft.com/stats/player/%{username}"
  },
  {
    "arguments": [
      "itemname"
    ],
    "id": "linkWynndataItemLookup",
    "url": "https://data.wynntils.com/i/%{itemname}"
  },
  {
    "id": "linkWynntilsDiscordInvite",
    "url": "https://discord.gg/SZuNem8"
  },
  {
    "id": "linkWynntilsPatreon",
    "url": "https://www.patreon.com/Wynntils"
  },
  {
    "arguments": [
      "token"
    ],
    "id": "linkWynntilsRegisterAccount",
    "url": "https://account.wynntils.com/register.php?token=%{token}"
  },
  {
    "id": "linkWynntilsStatus",
    "url": "https://status.wynntils.com/"
  }
]
